State, Address
Missouri, "610 Pestalozzi, St. Louis, MO 63118"
New Jersey, "200 U.S. Highway 1, Newark, NJ 07114"
California, "15800 Roscoe Blvd., Van Nuys, CA 91406"
Texas, "775 Gellhorn, Houston, TX 77029"
Ohio, "700 Schrock Road, Columbus, Ohio 43229"
Florida, "111 Busch Drive, Jacksonville, FL 32218"
New Hampshire, "221 Daniel Webster Highway, Merrimack, N.H. 03054"
Virginia, "7801 Pocahontas Trail, Williamsburg, VA 23185"
California, "3101 Busch Drive, Fairfield, Calif. 94534"
New York, "2885 Belgium Road, Baldwinsville, N.Y. 13027"
Colorado, "2351 Busch Drive, Fort Collins, CO 80524"
Georgia, "100 Busch Drive, Cartersville, GA 30120"

