![[factory]]<br />name,!!factory<br />[[Vehicle Identification Number|VIN]] ID<br />code(s),"!!location<br /><small>([[continent]],<br />[[country]])</small>","!!class=""unsortable""|location<br /><small>([[town]] / [[city]],<br />[[state (administrative division)|state]] / [[region]])</small>","!!class=""unsortable""|current<br />[[motor vehicle]]<br />[[automotive engineering|production]]","!!class=""unsortable""|former<br />motor vehicle<br />production","!!class=""unsortable""|[[automotive industry|automotive]]<br />[[list of auto parts|products &<br />components]]",!!year<br />opened,!!year<br />closed,!!number of<br />[[employment|employees]],"!!class=""unsortable""|comments",!!factory<br />[[geographic coordinate system|coordinates]]
Anchieta<br /><ref name=VWAG_plants/>,SP,Brazil,"São Bernardo do Campo, São Paulo",Volkswagen Gol|VW Gol<br />Volkswagen Fox|VW Fox<br />Volkswagen Polo|VW Polo<br />Volkswagen Gol|VW Saveiro<br />Volkswagen Type 2 (T2)|VW T2,Volkswagen Beetle|VW Beetle<br />Volkswagen Kombi|VW Kombi<br />Volkswagen Karmann Ghia|VW Karmann-Ghia<br />Volkswagen Noback|VW Noback<br />Volkswagen Squareback|VW Squareback<br />Volkswagen Fastback|VW Fast Back<br />Volkswagen Brasilia|VW Brasília<br />Volkswagen SP2|VW SP2<br />Volkswagen Passat|VW Passat<br />,"list of Volkswagen Group engines|Engines,<br />transmission (mechanics)|Gearboxes",1959, ,"10,900",Oldest currently operating Volkswagen Group factory outside of Europe.<br />Part of Volkswagen do Brasil|Volkswagen do Brasil Indústria de Veículos Automotores Ltda.,{{Coord|23.735217|S|46.54653|W|format=dms|type:landmark_region:BR-SP|name=Volkswagen Anchieta}}
"title=Scania Group - France, Angers|url=http://www.scania.com/scania-group/scania-around-the-world/production-units/angers.aspx|publisher=Scania AB (publ)|work=Scania.com|year=2008|accessdate=4 October 2009}}</ref>",Pays de la Loire,France,"Angers, Maine-et-Loire, Pays de la Loire",Scania truck assembly, , , , ,548,"Scania Production S.A.S. factory and assembly line, part of Scania (company)|Scania AB","{{Coord|47|30|4|N|0|30|55|W|type:landmark_region:FR-49|name=Scania Production S.A.S., Angers}}"
Shanghai<br />Shanghai Volkswagen Automotive|Volkswagen<br />(SVW)<br /><ref name=VWAG_plants/><ref>{{cite web|title=SVW Introduction|url=http://www.csvw.com/csvw/english/gsjs/gsjs/index.shtml|year=2004–2006|publisher=Shanghai Volkswagen Co. Ltd.|accessdate=26 August 2009}} {{Dead link|date=October 2010|bot=H3llBot}}</ref>,Shanghai Shi,China,"Anting, Jiading, District, Shanghai",Volkswagen Gol|VW Gol<br />Volkswagen Polo Mk4|VW Polo Mk4<br />VW Polo Classic<br />SAIC-Volkswagen Lavida|VW Lavida<br />Volkswagen Passat|VW Santana<br />(B2 & 3000)<br />Škoda Superb#B5|VW Passat Lingyu<br />Volkswagen Touran|VW Touran<br />Škoda Fabia#5J|Škoda Fabia Jungrui (5J)<br />Škoda Octavia#1Z|Škoda Octavia Ming Rui (1Z),Volkswagen Passat|VW Santana Vista,list of Volkswagen Group engines|Engines,1985, ,"14,673","SVW consists of a total area of 3.33&nbsp;km<sup>2</sup>, and includes a floor space of 0.9&nbsp;km<sup>2</sup>. One of the largest car-makers in China, it produces 500,000 units annually.","{{Coord|31|17|45|N|121|10|40|E|type:landmark_region:CN-31|name=Shanghai Volkswagen Automotive (SVW), Anting}}"
,Tokyo-to,Japan,Tokyo, ,Audi 80 <br /> Audi 80 Avant <br /> Audi 90 <br /> Audi 100 <br /> Audi 100 Avant <br /> Audi V8 <br /> Audi 200 <br /> Audi Coupé <br /> Audi Cabriolet <br /> Audi A4 <br /> Audi A4 Avant <br /> Audi A6 <br /> Audi A6 Avant <br /> Audi S6 <br /> Audi A8 ,,1989,1998, ,Joint venture between Audi|Audi AG and Hino Motors|Hino Jidōsha K.K.. ,
url=http://www.skoda-auto.co.in/ind/about/faqs/Pages/FAQs.aspx|title=Škoda Auto (India) - FAQ's|publisher=ŠkodaAuto India|work=Skoda-Auto.co.in|year=2008|accessdate=2 November 2009}}</ref>,MH,India,"Shendra, Aurangabad, Maharashtra",Audi A3<br />Audi A4#B8|Audi A4 (B8)<br />Audi A6#C7|Audi A6 (C7)<br />Audi Q3<br />Audi Q5<br />Audi Q7<br />{{nowrap|Škoda Octavia#1Z|Škoda Octavia (1Z)}}<br />Škoda Superb#B6|Škoda Superb (B6)<br />Volkswagen Jetta#A5|VW Jetta (1K)<br />Volkswagen Passat#B6|VW Passat (B6),{{nowrap|Audi A4#B7|Audi A4 (B7)<br />Audi A6#C6|Audi A6 (C6)<br />Škoda Octavia#1U|Škoda Octavia (1U)}}<br />Škoda Superb#B5|Škoda Superb (B5),list of Volkswagen Group engines|Engines,2001, ,864,Headquarters of Škoda India|Škoda Auto India and Audi India. All Skoda (except Rapid) and Audi brand vehicles in India are manufactured here. 0.3&nbsp;km<sup>2</sup>.,{{Coord|19|52|23|N|75|29|18|E|type:landmark_region:IN-MH|name=ŠkodaAuto India Aurangabad / Audi India Aurangabad}}
,CT,Spain,"El Prat de Llobregat, Baix Llobregat, Barcelona (province), Catalonia", , ,"transmission (mechanics)|Gearboxes,<br />Foundry",1980, ,"1,076","SEAT Gearbox del Prat, S.A. transmission production site, fully owned by SEAT|SEAT, S.A., producing gearboxes for SEAT, VW, Audi and Škoda Auto|Škoda; in 2009 the facility received the Volkswagen Excellence Award for the high-quality production process and product<ref>The Gearbox del Prat factory receives the VW Excellence Award http://media.seat.com/en/seat-news/2006/148.html</ref>","{{Coord|41|19|9|N|2|7|27|E|type:landmark_region:ES-CT|name=SEAT Gearbox del Prat, S.A., Barcelona}}"
,CT,Spain,"Zona Franca, Barcelona, Catalonia", ,pre-VAG SEAT cars<br />SEAT Ibiza<br />SEAT Toledo<br />Volkswagen Passat|VW Passat<br />Volkswagen Santana|VW Santana,"Stamped<br />body<br />parts,<br />Components",1953, ,"1,269<br /><br /><small>('''''Production''''':<br />1,161,<br />'''''Administrative areas''''':<br />108)</small>","Former<br />SEAT|SEAT, S.A. main factory and production line, now solely a press shop plant,<br />also hosting ''SEAT'''s ''Training centre''.<br />Oldest currently operating Volkswagen Group factory outside of Germany.","{{Coord|41|20|15.37|N|2|8|20.20|E|type:landmark_region:ES-CT|name=SEAT Zona Franca Press Shop, S.A., Barcelona}}"
,HE,Germany,"Baunatal, Kassel, Hesse", , ,"Foundry,<br />Remanufactured list of Volkswagen Group engines|engines,<br />Direct-Shift Gearboxes,<br />Remanufactured transmissions,<br />Exhaust systems, catalytic converters, diesel particulate filters",1958, ,"13,600","The plant suffered damage from a magnesium fire in May 2006. It also mounts the 7-speed Direct-Shift Gearbox|DSG to 4-cylinder engines. Also includes the Volkswagen AG Original Teile Centre (OTC), (''Volkswagen Group Original Parts Centre'') supplying 330,000 genuine parts.","{{Coord|51|15|28|N|9|26|0|E|type:landmark_region:DE-HE|name=Volkswagen-Werk Baunatal, Kassel}}<br /><br />{{Coord|51|14|46|N|9|26|23|E|type:landmark_region:DE-HE|name=Volkswagen AG Original Teile Centre (VW OTC) Baunatal, Kassel}}"
VW Bratislava<br /><ref name=VWAG_plants/><ref name=AudiMS.com/><ref>{{cite web|last=Jones|first=Jeffrey|title=VW Bratislava expands production|url=http://www.spectator.sk/articles/view/7923|work=Central Europe Automotive Report|publisher=The Slovak Spectator|date=27 August 1997|accessdate=26 August 2009}}</ref>,Bratislava Region,Slovakia,"Bratislava, Bratislava, Region",Volkswagen Touareg|VW Touareg<br />Audi Q7<br />Porsche Cayenne|Porsche&nbsp;Cayenne<br />Volkswagen up!|VW up!<br />SEAT Mii<br />Škoda Citigo,SEAT Ibiza#6L|SEAT Ibiza (6L)<br />Volkswagen Polo|VW Polo<br />Volkswagen Golf Variant#1H|VW Golf Mk3 Variant<br />Volkswagen Golf Variant#1J|VW Golf Mk4 Variant<br />Volkswagen Golf Mk4|VW Golf Mk4<br />VW R32 MK4<br />Volkswagen Passat|VW Passat<br />Škoda Octavia#1Z|Škoda Octavia (1Z),transmission (mechanics)|Transmission assembly,1991, ,"7,500","The only factory to produce the Volkswagen Golf|Golf 4motion|Syncro four-wheel drive version. Headquarters, and part of Volkswagen Slovakia, a.s.",{{Coord|48.234135|N|16.98791|E|format=dms|type:landmark_region:SK-BL|name=Volkswagen Bratislava}}
,NDS,Germany,"Braunschweig, Lower, Saxony", , ,"Axles,<br />Steering units,<br />Plastic parts,<br />Vehicle components,<br />machine tool|Tools and machines",1938, ,"5,700",Also produces components for non-VW Group companies,{{Coord|52|17|37|N|10|31|22|E|type:landmark_region:DE-NI|name=Volkswagen-Werk Braunschweig (Brunswick)}}
,Brussels,Belgium,"Vorst, Brussels",Audi A1 <small></small>,SEAT León#1M|SEAT León (1M)<br />SEAT Toledo#1M|SEAT Toledo (1M)<br />Volkswagen Karmann Ghia|VW Karmann Ghia<br />Volkswagen Lupo|VW Lupo<br />Volkswagen Golf|VW Golf<br />Volkswagen Passat#B4|VW Passat (B4)<br />Audi A3 Sportback<br />Volkswagen Polo|VW Polo, , , ,"2,159",Formerly scheduled to close. Given a reprieve in 2007 when Audi|AUDI AG took over operations to build the upcoming Audi A1. Part of Audi Brussels S.A./N.V.,{{Coord|50.808559|N|4.311404|E|format=dms|type:landmark_region:BE-BRU|name=Volkswagen-Audi Brussels}}
FAW-<br />Volkswagen<br /><ref name=VWAG_plants/><ref name=AudiMS.com/><ref>{{cite web|title=Audi opens new assembly hall in Changchun|url=http://www.volkswagenag.com/vwag/vwcorp/info_center/en/news/2009/09/changchun.html|publisher=Volkswagen AG|work=VolkswagenAG.com|date=19 September 2009|accessdate=25 September 2009}}</ref>,Jilin Sheng,China,"Changchun, Jilin, Province",Volkswagen Jetta#A2|VW Jetta A2<br />Volkswagen Bora|VW New Bora<br />Volkswagen Sagitar|VW Sagitar<br /><small>(Jetta A5)</small><br />Volkswagen Golf Mk6|VW Golf Mk6<br />Volkswagen Passat#B7|VW Magotan<br /><small>(Passat B7)</small><br />Volkswagen Passat CC|VW CC<br />Audi A4#B8|Audi A4L (B8)<br />Audi A6#C6|Audi A6L (C6)<br />Audi Q5,Audi 100|Audi 100<br />Audi 200<br />Audi A6#C5|Audi A6L (C5)<br />Audi A4#B6|Audi A4L (B6)<br />Audi A4#B7|Audi A4L (B7)<br />SEAT Córdoba#MK1|VW City Golf<br /><small>(SEAT Córdoba)</small><br />Volkswagen Golf Mk4|VW Golf Mk4<br />Volkswagen Bora|VW Bora (A4)<br />Volkswagen Bora|VW Bora LWB<br />Volkswagen Caddy#Typ 2K|VW Caddy<br />Volkswagen Passat#B6|VW Magotan<br /><small>(Passat B6)</small>,",<br />transmission (mechanics)|Gearboxes<br />Chassis components",1991, ,"9,984<br /><br /><small>('''''Auto''''':<br />9,800<br />'''''Platform''''':<br />184)</small>","FAW-VW Automobile|FAW-VW was established in 1991, with full operations commencing 1996. Now separated into two companies: FAW-VW Automobile|FAW-Volkswagen Automotive Company Ltd. and First Automobile Works|FAW-list of Volkswagen Group engines|EnginesVolkswagen Platform Company Ltd.",{{Coord|43|50|34|N|125|11|48|E|type:landmark_region:CN-22|name=FAW-Volkswagen Changchun}}
title=Volkswagen opens new plant in Pune / India|url=http://www.volkswagenag.com/vwag/vwcorp/info_center/en/news/2009/03/Pune.html|publisher=Volkswagen AG|work=VolkswagenAG.com|date=31 March 2009|accessdate=24 September 2009}}</ref>,MH,India,"Chakan, Pune District, Maharashtra",Škoda Rapid (2011)|Škoda Rapid<br />Volkswagen Polo|VW Polo<br />VW Vento,Škoda Fabia#5J|Škoda Fabia (5J)<br /> ,list of Volkswagen Group engines|Engines; serial production to start end of 2014; planned capacity of 360 engines per day,2009, ,"2,500<br /><small>(anticipated<br />by<br />2010)</small>","Headquarters and plant of Volkswagen India, Škoda India|Škoda Auto India plant. Costing euro|€580m, this is the largest German investment in India. A maximum annual capacity of 110,000 fully manufactured cars is anticipated.",
"Chattanooga<br /><ref>{{cite web|title=Volkswagen announces plans for factory in Chattanooga, Tenn.|url=http://www.autoblog.com/2008/07/15/volkswagen-announces-plans-for-factory-in-chattanooga-tenn|publisher=Volkswagen Group of America|Volkswagen Group of America, Inc - press release|work=AutoBlog.com|date=15 July 2008|accessdate=27 October 2009}}</ref><ref>{{cite web|title=Volkswagen factory in Chattanooga foundation for future US strategy|url=http://www.volkswagenag.com/vwag/vwcorp/info_center/en/news/2009/05/Chattanooga.html|date=14 May 2009|publisher=Volkswagen AG|work=VolkswagenAG.com|accessdate=27 October 2009}}</ref>",TN,USA,"Chattanooga, Tennessee",Volkswagen Passat NMS, , ,2011, ,"2,000","VW Group's 62nd plant, the Volkswagen Group of America plant is located on a {{convert|1350|acre|ha|abbr=on}} site and was inaugurated in May 2011, anticipating an annual capacity of 150,000 cars.",{{Coord|35.077283|N|85.136576|W|format=dms|type:landmark_region:US-TN|name=Volkswagen Chattanooga}}
,SN,Germany,"Chemnitz, Saxony", , ,"inline-four engine|Four cylinder internal combustion engine|engines (list of Volkswagen Group petrol engines|petrol and list of Volkswagen Group diesel engines|diesel),<br />Vehicle components", , ,"7,632",Part of the Volkswagen Sachsen Gesellschaft mit beschränkter Haftung|GmbH subsidiary,{{Coord|50|48|21|N|12|54|19|E|type:landmark_region:DE-SN|name=Volkswagen-Motorenfertigung Chemnitz}}
FAW-<br />Volkswagen<br /><ref name=VWAG_plants/>,Sichuan Sheng,China,"Chengdu, Sichuan, Province",Volkswagen Jetta#A2|VW Jetta A2<br />Volkswagen Sagitar|VW Sagitar<br /><small>(Jetta A6)</small>, , ,2011<ref>[http://www.faw-vw.com/about/content.php?cate_name=%B9%AB%CB%BE%D0%C2%CE%C5&news_id=1893 The third car plant of FAW-VW's started running in Chengdu]</ref>, ,"11,032","Began on May 2009, The 3rd car plant of FAW-VW Automobile|FAW-Volkswagen Automotive Company Ltd. took 810,000 square meters in total",{{Coord|30|37|56|N|104|05|11|E|type:landmark_region:CN-51|name=FAW-Volkswagen Chengdu}}
Clayton,VIC,Australia,"Melbourne, Victoria", ,Volkswagen Beetle|VW Beetle<br /> Volkswagen Golf Mk1|VW Golf Mk1, ,1953,1985 ?,0,Ownership transferred from VW to Nissan Motors|Nissan Australia. Currently Holden Special Vehicles factory.,{{Coord|37|56|2|S|145|8|17.5|E|format=dms|type:landmark_region:AU-VIC|name=former Volkswagen Clayton factory}}
,CB,Argentina,"Córdoba, Córdoba, Province", , ,"manual transmission|Manual<br />transaxles,<br />Components", , ,"5,391",Part of Volkswagen Argentina S.A.,"{{Coord|31|27|51.5|S|64|10|1|W|type:landmark_region:AR-X|name=Volkswagen Argentina S.A., Córdoba}}"
,England,UK,"Crewe, Cheshire, England",Bentleys:<br />Bentley Mulsanne (2010)|Bentley Mulsanne<br />Bentley Continental Flying Spur (2005)|Continental Flying Spur<br />Bentley Continental GT|Continental GT<br />Bentley Continental GTC|Continental GTC, Bentleys:<br />Bentley Arnage|Arnage<br />Bentley Azure|Azure<br />Bentley Brooklands|Brooklands,Bentley list of Volkswagen Group petrol engines|engines, , ,"3,706","Headquarters, R&D and plant of Bentley|Bentley Motors Ltd. All production is carried out by hand using traditional 'master craftsman|craftsman' techniques.","{{Coord|53|06|16|N|2|28|26|W|type:landmark_region:GB-CHS|name=Bentley Motors Limited, Crewe}}"
,PR,Brazil,"São José, dos, Pinhais, Paraná",Volkswagen Golf|VW Golf<br />Volkswagen Fox|VW Fox<br />VW Cross-Fox<br />Audi A3, , ,1998, ,"3,600",Part of Volkswagen do Brasil,{{Coord|25.670114|S|49.170309|W|format=dms|type:landmark_region:BR|name=Volkswagen Curitiba}}
Volkswagen<br />FAW Group|FAW Engine<br /><ref name=VWAG_plants/>,Liaoning Sheng,China,"Dalian, Liaoning, Province", , ,list of Volkswagen Group engines|Engines,????, , ,"Volkswagen FAW Engine (Dalian) Co., Ltd.",
Transparent<br />Factory<br /><ref name=VWAG_plants/>,SN,Germany,"Dresden, Saxony",Volkswagen Phaeton|VW Phaeton,Bentley Continental Flying Spur (2005)|Bentley Continental Flying Spur <small>(until 2006)</small>, ,2000, ,393,Automobil Dresden GmbH. Majority of production is carried out by hand. Also includes individual customer specification changes.,"{{Coord|51.044507|N|13.755714|E|format=dms|type:landmark_region:DE-SN|name=Automobil Dresden GmbH - Volkswagen Gläserne Manufaktur (Transparent Factory), Dresden}}"
,NRW,Germany,"Düsseldorf, Düsseldorf, region, North, Rhine-Westphalia",Volkswagen Crafter|VW Crafter (LT3), , , , , ,"Mercedes-Benz Commercial Vehicles site. Originally an Auto Union plant prior to the construction of the Ingolstadt plant, but was retained by Daimler-Benz following the sale of Auto Union to Volkswagen in 1964.  Builds the LT3 and Mercedes-Benz Sprinter under a joint venture agreement.","{{Coord|51|15|30|N|6|47|04|E|type:landmark_region:DE-NW|name=Daimler AG: Mercedes-Benz Werk, Düsseldorf}}"
,NDS,Germany,"Emden, Lower, Saxony",Volkswagen Passat|VW Passat<br />VW Passat Variant,Volkswagen Beetle|VW Beetle<br />Volkswagen Karmann Ghia|VW Karmann Ghia<br />Audi 80|Audi 80/90<br />Audi Coupé|Audi 4000, ,1964, ,"7,800",Was the final German factory to produce the original Beetle before all production was shifted to the Puebla plant in Mexico.  Is now the principal plant for the VW Passat. Has its own harbour which imports and re-distributes vehicles produced in overseas plants,{{Coord|53|20|49|N|7|9|38|E|type:landmark_region:DE-NI|name=Volkswagen-Werk Emden}}
url=http://www.volkswagenag.com/vwag/vwcorp/info_center/en/news/2007/11/Produktionsstart.html|title=Start of production and world premiere for the Audi A3 Cabriolet in Hungary|publisher=Volkswagen AG|work=VolkswagenAG.com|date=30 November 2007|accessdate=30 August 2009}}</ref>,Gyor-Moson-Sopron,Hungary,"Győr, Győr-Moson-Sopron",Audi TT (8J) Coupé<br />Audi TT (8J) Roadster<br />Audi A3 Cabriolet<br />Audi TT#TTS|Audi TTS C & R<br />Audi TT#TTRS|Audi TTRS C & R,Audi A3#8L|Audi S3 (8L)<br />Audi TT#8N|Audi TT (8N) C & R,"Aluminium body panels for the<br />Audi R8 (road car)|Audi R8,<br />list of Volkswagen Group petrol engines|Petrol engines,<br />list of Volkswagen Group diesel engines|Diesel engines,<br />Toolmaking",1997, ,"5,879","Part of Audi Hungaria Motor Kft., owned by Audi|Audi AG","{{Coord|47|41|56|N|17|41|5|E|type:landmark_region:HU-GS|name=Audi Hungaria Motor Kft., Győr}}"
title=Volkswagen Commercial Vehicles - Company - Chronicle - 1990-2000|url=http://www.volkswagen-commercial-vehicles.com/int/en/unternehmen/chronikuebersicht/1990-2000.html|publisher=Volkswagen AG|work=Volkswagen-Commercial-Vehicles.com|accessdate=9 September 2009|archiveurl=https://web.archive.org/web/20111004151009/http://www.volkswagen-commercial-vehicles.com/int/en/unternehmen/chronikuebersicht/1990-2000.html|archivedate=4 November 2011}}</ref><ref>{{cite web|title=Volkswagen Commercial Vehicles builds one millionth T5|url=http://www.volkswagenag.com/vwag/vwcorp/info_center/en/news/2009/06/vw_commercial_vehicles_builds_one_millionth_t5.html|publisher=Volkswagen Group|Volkswagen AG|work=VolkswagenAG.com|date=30 June 2009|accessdate=12 November 2009}}</ref>,NDS,Germany,"Hanover, Lower, Saxony",Volkswagen Transporter (T5)|VW&nbsp;Transporter<br />(T5),Volkswagen Taro|VW Taro<br />Volkswagen Type 2|VW Type 2<br />Volkswagen Transporter (T4)|VW Transporter (T4)<br />Volkswagen LT|VW LT,"Foundry,<br />Toolmaking,<br />Porsche Panamera finished body",1956, ,"12,900",Volkswagen Commercial Vehicles (VWN) site,{{Coord|52|25|6|N|9|40|19|E|type:landmark_region:DE-NI|name=Volkswagen-Werk Hannover (VW Commercial Vehicles/VWN)}}
,BY,Germany,"Ingolstadt, Bavaria",Audi A3<br />Audi S3<br />Audi A4<br />Audi S4<br />Audi A4#allroad|Audi A4 allroad<br />Audi A5<br />Audi Q5,Volkswagen Iltis|VW 181 Iltis<br />Audi 50<br />Audi Quattro<br /><br />Audi Coupé<br />Audi 80|Audi 80/80q/90/90q<br />Audi Coupé|Audi 4000<br />Audi 100|Audi 100/200/5000<br />Volkswagen Jetta|VW Jetta<br />Audi Cabriolet<br />Audi A3#8L|Audi S3 (8L),Bodyshell<br />construction<br />and painting of<br />Audi TT (C & R)<br />and<br />A3 Cabrio,1964, ,"46,502",The larger of Audi's two principal assembly plants (the other being Neckarsulm).  Volkswagen acquired the near-new plant at Ingolstadt when Auto Union was purchased from Daimler-Benz. Now headquarters of AUDI AG and the Audi Group (which primarily consists of Audi and Lamborghini),"{{Coord|48|47|16|N|11|24|50|E|type:landmark_region:DE-BY|name=AUDI AG Werk and Headquarters, Ingolstadt}}"
AutoLatina,SP,Brazil,"Ipiranga, São Paulo", ,Volkswagen Apollo|VW Apollo<br />Volkswagen Pointer#Logus|VW Logus<br />Volkswagen Pointer|VW Pointer<br />Volkswagen Passat|VW Santana<br />Volkswagen Quantum|VW Quantum, ,1995,1996,0,Formerly part of<br />Volkswagen do Brasil,
,Special Capital Region of Jakarta,Indonesia,"Jakarta, Java", , , ,1998, , ,???,
,Shanghai Shi,China,"Jiading, Shanghai", , ,transmission (mechanics)|Gearboxes,????, , ,Volkswagen Transmission (Shanghai) Co. Ltd.,"{{Coord|31|17|20|N|121|10|54|E|type:landmark_region:CN-31|name=Volkswagen Transmission (Shanghai) Company Ltd., Jiading}}"
title=The Volkswagen Plant in Kaluga|publisher=Volkswagen AG|work=Volkswagen-Media-Services.com|date=28 February 2009|url=https://www.volkswagen-media-services.com/medias_publish/ms/content/en/pressemitteilungen/2009/02/28/the_volkswagen_plant.standard.gid-oeffentlichkeit.html|accessdate=9 November 2009}}</ref><ref>{{cite web|title=Volkswagen Group starts full production in Russia|publisher=Volkswagen AG|work=VolkswagenAG.com|date=20 October 2009|url=http://www.volkswagenag.com/vwag/vwcorp/info_center/en/themes/2009/10/kaluga_russia.html|accessdate=9 November 2009}}</ref>,Kaluga Oblast,Russia,"City of Kaluga, Kaluga, Oblast",Audi A4#B8|Audi A4 (B8)<br />Audi A5<br />Audi A6<br />Volkswagen Jetta|VW Jetta<br />Volkswagen Passat|VW Passat<br />Volkswagen Tiguan|VW Tiguan<br />Volkswagen Touareg|VW Touareg<br />Škoda Fabia#5J|Škoda Fabia (5J)<br />Škoda Octavia, , ,2007, ,"1,800","New 200&nbsp;m² facility; projected full annual output capacity of 150,000 vehicles to be reached during 2010, with employees rising to 3,000. All vehicles produced were initially complete knock down|semi knock downs (SKD), but full production will start 2010. Is served by Grabtsevo Airport, both part of Volkswagen Group Russia (OOO Volkswagen Rus).",{{Coord|54|34|28|N|36|20|40|E|type:landmark_region:RU-KLU|name=Volkswagen Kaluga}}
,NDS,Germany,"Osnabrück, Lower, Saxony",Volkswagen Golf Cabriolet|VW Golf Cabriolet,Audi Cabriolet<br />Audi A4 (B6/B7) Cabrio<br />Audi S4 (B6/B7) Cabrio<br />Audi RS4#B7|Audi B7 RS4 Cabrio<br />Volkswagen Beetle|VW Beetle Cabrio<br />Volkswagen Karmann Ghia|VW Karmann Ghia<br />Volkswagen Golf Cabriolet|VW Golf Cabriolet<br />Volkswagen Golf Variant#1H|VW Golf Mk3 Variant<br />Volkswagen Scirocco|VW Scirocco<br />Volkswagen Corrado|VW Corrado<br />Volkswagen Jetta|VW Vento,Roof<br />components<br />for:<br />Audi A4/S4/RS4 Cabrio<br />Volkswagen New Beetle|VW New Beetle, , , ,"Former site of Wilhelm Karmann GmbH, producing cars and components for Volkswagen Group","{{Coord|52|15|57|N|8|4|40|E|type:landmark_region:DE-NI|name=Karmann-Werk, Osnabrück}}<br /><br /><br /><br /><br />{{Coord|52|18|38|N|7|26|47|E|type:landmark_region:DE-NW|name=Karmann-Werk, Rheine}}"
,Hradec Kralove Region,Czech Republic,"Kvasiny, Hradec, Králové",Škoda Fabia#5J|Škoda Fabia (5J)<br />Škoda Superb#3T|Škoda Superb (3T)<br />Škoda Roomster<br />Škoda Yeti<br />Škoda Praktik,Škoda Fabia#6Y|Škoda Fabia (6Y)<br />Škoda Superb#3U|Škoda Superb (3U), ,1997, , ,Škoda Auto a.s. factory,"{{Coord|50|12|17|N|16|15|28|E|type:landmark_region:CZ-KR|name=Škoda Auto a.s., Kvasiny}}"
,Lagos,Nigeria,"Ojo, Lagos", ,Volkswagen Beetle|VW Beetle<br />Volkswagen Jetta|VW Jetta<br />Volkswagen Passat|VW Santana, ,1975,1992 ?,0, ,{{Coord|6.461861|N|3.215464|E|format=dms|type:landmark_region:NG-LA|name=former Volkswagen Lagos factory}}
,SN,Germany,"Leipzig, Saxony",Porsche Cayenne,, ,2001, , ,Final assembly of the Porsche Cayenne,
"Shanghai<br />Shanghai Volkswagen Automotive|Volkswagen<br />(SVW)<br /><ref name=VWAG_plants/>
",Shanghai Shi,China,"Jiading, Shanghai", , ,list of Volkswagen Group engines|Engines,????, , ,Shanghai Volkswagen Powertrain Co. Ltd.,
,BB,Germany,"Ludwigsfelde, Teltow-Fläming, Brandenburg",Volkswagen Crafter|VW Crafter (LT3), , , , , ,Mercedes-Benz Commercial Vehicles site. Builds the LT3 and Mercedes-Benz Sprinter under a joint venture agreement.,"{{Coord|52|19|27|N|13|16|10|E|type:landmark_region:DE-BB|name=Daimler AG: Mercedes-Benz Werk, Ludwigsfelde}}"
"title=Scania Group - Sweden, Luleå|url=http://www.scania.com/scania-group/scania-around-the-world/production-units/lulea.aspx|publisher=Scania AB (publ)|work=Scania.com|year=2008|accessdate=4 October 2009}}</ref>",Norrbotten County,Sweden,"Luleå Municipality, Norrbotten, Norrbotten County", , ,"Scania truck frame members,<br />Rear axle housings", , ,713,"Ferruform AB factory, part of Scania (company)|Scania AB","{{Coord|65|36|48|N|22|7|45|E|type:landmark_region:SE-BD|name=Ferruform AB, Luleå (part of Scania AB)}}"
,Zilina Region,Slovakia,"Martin, Žilina", , ,"Manual transmission#Unsynchronized transmission|Synchronous rings,<br />Flanged shafts,<br />drum brake|Brake drums,<br />differential (mechanical device)|Differential housing,<br />disc brake|Brake discs",2000, ,800,"Part of Volkswagen Slovakia, a.s.",
,CT,Spain,"Martorell, Catalonia",SEAT Ibiza#6J|SEAT Ibiza (6J)<br />SEAT León<br />SEAT Altea<br />SEAT Altea XL/Freetrack|SEAT Altea XL<br />SEAT&nbsp;Altea<br />Freetrack<br />SEAT Exeo<br />Audi Q3,SEAT Arosa<br />SEAT Ibiza#6K|SEAT Ibiza (6K)<br />SEAT Ibiza (6L)<br />SEAT Córdoba<br />SEAT Córdoba Vario<br />SEAT Inca<br />SEAT Toledo<br />Volkswagen Caddy|VW Caddy (9K)<br />Volkswagen Polo|VW Polo Classic<br />VW Polo Variant,list of Volkswagen Group engines|Engine assembly,1993, ,"9,405<br /><br /><small>('''''Production''''':<br />6,713,<br />'''''Spare parts''''':<br />306,<br />'''''Administrative areas''''':<br />2,386)</small>","Headquarters, ''Technical Centre'', ''R&D Centre'', ''Design Center'', ''Prototypes Centre of Development'' and main factory of SEAT|SEAT, S.A. with annual capacity of 500,000 cars,<br />''SEAT Sport division Centre'', as well as ''Volkswagen Group Genuine Parts Centre''.<br /><br />Construction of SEAT's Technical Centre began in 1973, and was completed in 1975.<br />Construction of SEAT's factory began in 1989, inaugurated by the Monarchy of Spain|King of Spain in 1993;in 1998 the plant received the ''Best factory of the VW Group in the first quarter award''",{{Coord|41|29|48|N|1|54|9|E|type:landmark_region:ES-CT|name=Volkswagen Martorell SEAT}}
"title=Scania Group - The Nederlands, Meppel|url=http://www.scania.com/scania-group/scania-around-the-world/production-units/meppel.aspx|publisher=Scania AB (publ)|work=Scania.com|year=2008|accessdate=4 October 2009}}</ref>",DR,Netherlands,"Meppel, Drenthe", , ,Scania truck components and paint shop, , ,75,"Scania Production Meppel B.V. factory, part of Scania (company)|Scania AB","{{Coord|52|41|25|N|6|10|24|E|type:landmark_region:NL-DR|name=Scania Production Meppel B.V., Meppel}}"
,Central Bohemian Region,Czech Republic,"Mladá, Boleslav, Central, Bohemia",Škoda Fabia#5J|Škoda Fabia (5J)<br /> {{nowrap|Škoda Rapid (2012)}}<br /> {{nowrap|Škoda Octavia#1Z|Škoda Octavia (1Z)}},Škoda Felicia<br />Škoda Fabia#6Y|Škoda Fabia (6Y)<br />{{nowrap|Škoda Octavia#1U|Škoda Octavia (1U)}},"list of Volkswagen Group engines|Engines,<br />Gearboxes,<br />Foundry",1991, ,"24,524<br /><small>(includes<br />all<br />Czech<br />sites)</small>","Main factory, R&D and headquarters of Škoda Auto|Škoda Auto a.s., and home to Škoda Auto Museum. Site started original manufacturing of cars in 1905. Transferred into VW Group ownership in April 1991.","{{Coord|50|25|16|N|14|55|50|E|type:landmark_region:CZ-ST|name=Škoda Auto headquarters & factory, Mladá Boleslav}}"
Mosel<br />Zwickau<br /><ref name=VWAG_plants/>,SN,Germany,"Zwickau, Saxony",Volkswagen Golf Mk6|VW Golf Mk6<br />Volkswagen Passat#B6|VW Passat (B6),Volkswagen Golf Variant#1J|VW Golf Mk4 Variant<br />Volkswagen Golf Mk5|VW Golf Mk5,Volkswagen Phaeton|VW Phaeton bodyshells for completion in the Transparent Factory,1991, ,"7,632",Volkswagen Sachsen GmbH subsidiary. Has its origins as a pre-war Audi/Auto Union plant which became the VEB Sachsenring (Trabant) assembly plant after Auto Union relocated to Ingolstadt after WW2.  Now home to the Audi AG-owned August Horch Museum.,{{Coord|50|47|37|N|12|29|15|E|type:landmark_region:DE-SN|name=Volkswagen-Fahrzeugfertigung Mosel}}
,Alsace,France,"Dorlisheim, Molsheim, Bas-Rhin, Alsace",Bugatti Bugatti Veyron|Veyron EB&nbsp;16.4, , , , ,67,"Headquarters, research and development facility and plant of Bugatti Automobiles|Bugatti Automobiles S.A.S.. All production is carried out by hand using traditional 'master craftsman|craftsman' techniques.","{{Coord|48|31|38|N|7|29|46|E|type:landmark_region:FR-67|name=Bugatti Automobiles S.A.S., Dorlisheim}}"
Shanghai<br />Shanghai Volkswagen Automotive|Volkswagen<br />(SVW)<br /><ref name=VWAG_plants/>,Jiangsu,China,"Nanjing, Jiangsu, Province, Shanghai",Volkswagen Passat|VW Santana Vista, , ,????, , ,SVW Nanjing plant,
,BW,Germany,"Neckarsulm, Baden-Württemberg",Audi A4 saloon<br />Audi A5 Cabriolet<br />Audi A5#S5|Audi S5 Cabriolet<br />Audi A6<br />Audi S6<br />Audi RS6#C6|Audi RS6 (C6)<br />Audi A6 allroad quattro|Audi A6 allroad<br />Audi A8<br />Audi S8<br />Audi R8 (road car)|Audi R8<br />Audi Q7#Q7 V12 TDI (2008-)|Audi Q7 V12 TDI,Audi Cabriolet<br />Audi 100<br />Audi 100|Audi 200<br />Audi 100|Audi 5000<br />Audi V8<br />Audi S6#Audi S6 PLUS|Audi S6 Plus<br />Audi RS4#B5|Audi RS4 (B5)<br />Audi A2<br />Audi RS6#C5|Audi RS6 (C5)<br />Audi RS4#B7|Audi RS4 (B7)<br />NSU Ro 80<br />Porsche 924,"Aluminium<br />body shells<br />and panels,<br />list of Volkswagen Group engines|Engine<br />development,<br />Paint finish on Lamborghini Gallardo|Lamborghini<br />Gallardo", , ,"13,657","The former NSU Motorenwerke AG site, acquired by VW in 1969. Now, AUDI AG, and the ""Audi aluminium plant"".<br /><br />Also home to Audi high performance private subsidiary quattro GmbH, who manufacture all Audi RS|Audi RS cars (except the TTRS) and the Audi R8","{{Coord|49|12|5|N|9|13|19|E|type:landmark_region:DE-BW|name=AUDI AG Werk, Neckarsulm, and quattro GmbH}}"
"title=Scania Group - Sweden, Oskarshamn|url=http://www.scania.com/scania-group/scania-around-the-world/production-units/oskarshamn.aspx|publisher=Scania AB (publ)|work=Scania.com|year=2008|accessdate=4 October 2009}}</ref>",Kalmar County,Sweden,"Oskarshamn Municipality, Kalmar County, Småland", , ,Scania truck cabin (truck)|Cab production, , ,"2,172",Scania (company)|Scania AB factory,"{{Coord|57|15|24|N|16|25|42|E|type:landmark_region:SE-H|name=Scania AB production plant, Oskarshamn}}"
,BA,Argentina,"General Pacheco, Buenos Aires Province",Volkswagen Fox|VW Fox<br />Volkswagen Suran|VW Suran<br />Volkswagen Amarok|VW Amarok,Volkswagen Gol|VW Gol<br />SEAT Cordoba<br />SEAT Inca,"list of Volkswagen Group engines|Engine assembly,<br />Components",1995, ,"2,200",Part of Volkswagen Argentina S.A.,{{Coord|34.442601|S|58.692119|W|format=dms|type:landmark_region:AR-B|name=Volkswagen Pacheco}}
,Setubal,Portugal,"Quinta, do Anjo, Setúbal",SEAT Alhambra<br />Volkswagen Sharan|VW Sharan<br />Volkswagen Eos|VW Eos<br />Volkswagen Scirocco|VW Scirocco,Ford Galaxy<br /><small>(1st generation)</small>, ,1994, ,"3,015",AutoEuropa-Automóveis Lda.,{{Coord|38|35|2|N|8|59|19|W|type:landmark_region:PT-15|name=Volkswagen Palmela AutoEuropa}}
,Navarra,Spain,"Pamplona, Navarra",Volkswagen Polo Mk5|VW Polo Mk5 (6R),"various Authi cars<br />SEAT 124<br />SEAT Panda<br />Lancia Beta|Lancia Beta,HPE&Coupé<br />VW Polo",list of Volkswagen Group engines|Engine assembly,1965<ref>The Volkswagen plant in Pamplona https://www.volkswagen-media-services.com/medias_publish/ms/content/en/pressemitteilungen/2009/01/31/the_volkswagen_plant_in_pamplona.standard.gid-oeffentlichkeit.html</ref>, ,"3,879","Previously called Landaben when formerly owned by SEAT, S.A., ownership was transferred to Volkswagen Group in the 1990s, under the Volkswagen Navarra, S.A. subsidiary; in 1986 the facility was awarded with the ''World quality award (Q-86)''.<ref>La fábrica de Landaben recibió el Premio Mundial de Calidad (Q-86) http://www.vw-navarra.es/fabrica/historia_desarrollo.aspx</ref>
",{{Coord|42.809223|N|1.695478|W|format=dms|type:landmark_region:ES-NA|name=Volkswagen Pamplona Navarra}}
,Greater Poland Voivodeship,Poland,"Poznań, Greater, Poland",Volkswagen Caddy|VW Caddy 3,"Volkswagen Transporter (T4)|VW Transporter (T4)
","Intake pipe modules,<br />Cylinder heads,<br />Steering gear housings, Foundry",1996, ,"5,101","Initially a joint venture between VW Group and Tarpan, fully owned by VW Group since 1996. Volkswagen Poznań Sp. z o.o.",{{Coord|52.411137|N|17.031298|E|format=dms|type:landmark_region:PL-WP|name=Volkswagen Poznań}}
,Pue.,Mexico,"Puebla, Puebla, State",Volkswagen Jetta#A6|VW Jetta <small>(Jetta Mk6)</small><br />Volkswagen Golf Mk7|VW Golf Mk7<br />Volkswagen Bora|VW Jetta Mk4,Volkswagen New Beetle|VW New Beetle<br />VW New Beetle Cabrio<br />Volkswagen Beetle|VW Beetle<br />Volkswagen Golf|VW Golf Mk1 to Mk3<br />Volkswagen Jetta#A5|VW Jetta <small>(Jetta Mk5)</small><br />Volkswagen Golf Variant#1K|VW Golf Mk5-Mk6 Variant <small>(Jetta wagon)</small><br />Volkswagen Santana|VW Corsar (Santana)<br />Volkswagen Brasilia|VW Brasilia<br />Volkswagen Transporter|VW T2<br />Volkswagen 181|VW 181,list of Volkswagen Group petrol engines#BGP|Inline five<br />petrol engines,1964, ,"13,535",Largest Volkswagen factory outside of Germany. Headquarters of Volkswagen de Mexico S.A. de C.V. (VWM),{{Coord|19.121825|N|98.252857|W|format=dms|type:landmark_region:MX-PUE|name=Volkswagen Puebla}}
Resende<br /><ref name=VWAG_plants/><ref name=VWCV_90-00/>,RJ,Brazil,"Porto Real, Rio de, Janeiro",Volkswagen Volksbus|VW Volksbus<br />Volkswagen Constellation|VW Constellation<br />MAN TGX<ref>http://www.man-la.com/produtos-man</ref>,Volkswagen L80|VW L80, , , ,"3,045","Volkswagen Trucks and Buses|Volkswagen Caminhões e Ônibus,<ref>http://www.vwcaminhoeseonibus.com.br/pt/company_factory_brasil.aspx</ref> now MAN Latin America,<ref>http://www.corporate.man.eu/en/company/production/man-latin-america/Resende.html</ref> part of MAN SE since 2009<ref>http://www.corporate.man.eu/en/company/history/man-timeline/MAN-Timeline.html</ref>",{{Coord|22.426897|S|44.356184|W|format=dms|type:landmark_region:BR-RJ|name=Volkswagen Caminhões e Ônibus}}
url=http://www.vw-m.de/index.php?id=2&L=1|title=Volkswagen Marine - our factory|work=www.vw-m.de|publisher=Volkswagen Marine|accessdate=18 February 2010}}</ref>,NDS,Germany,"Salzgitter, Lower, Saxony", ,Volkswagen Type 2 (T3)|VW Type 2 (T3)<br />Volkswagen Type 4|VW Type 4<br />Volkswagen K70|VW K70,"list of Volkswagen Group engines|Automotive engines for Bentley, Bugatti and all mainstream marques<br />Volkswagen Marine list of Volkswagen Group diesel engines|diesel engines<br />Components",1970, ,"6,200","S code became obsolete in 1975 when Salzgitter was converted to an engine and components, plant.",{{Coord|52|11|9|N|10|26|32|E|type:landmark_region:DE-NI|name=Volkswagen-Werk Salzgitter}}
,Emilia-Romagna,Italy,"Sant'Agata Bolognese, Bologna, Emilia-Romagna",Lamborghini Gallardo<br />Lamborghini Aventador,Lamborghini Murciélago<br />Lamborghini Reventón, , , ,986,"Headquarters and plant of Lamborghini|Automobili Lamborghini S.p.A., also location of the company's main research and development department, part of the Audi Group.","{{Coord|44|39|31|N|11|07|32|E|type:landmark_region:IT-BO|name=Automobili Lamborghini S.p.A., Sant'Agata Bolognese}}"
,SP,Brazil,"São Carlos, São Paulo", , ,list of Volkswagen Group engines|Engines,1996, ,550,Part of Volkswagen do Brasil,{{Coord|22|03|51|S|47|52|19|W|type:landmark_region:BR-SP|name=Volkswagen São Carlos}}
"title=Scania Group - Brazil, São Paulo|url=http://www.scania.com/scania-group/scania-around-the-world/production-units/sao-paulo.aspx|publisher=Scania AB (publ)|work=Scania.com|year=2008|accessdate=4 October 2009}}</ref>",SP,Brazil,"São Paulo, Greater São Paulo, São Paulo state",Scania trucks<br />Scania bus chassis, ,"list of Volkswagen Group engines|Engines,<br />Axles", , ,"2,299","Scania Latin America Ltda., part of Scania (company)|Scania AB","{{Coord|23|42|49|S|46|33|58|W|type:landmark_region:BR-SP|name=Scania Latin America Ltda., São Paulo}}"
,Federacija Bosne i Hercegovine,Bosnia-Herzegovina,"Vogošća, Sarajevo Canton",Eco Carrier,Škoda Superb#B5|Škoda Superb (B5),Ring gears<br />Stub axles,1972, ,308,"T & 9 codes used when Sarajevo was in former country of Yugoslavia. Factory bombed during the War in Bosnia and Herzegovina|Bosnian War, subsequently rebuilt in 1998, additional S code assigned for Volkswagen Sarajevo d.o.o. in the new country of Bosnia and Herzegovina. All are SKDs.",{{Coord|43.899933|N|18.361845|E|format=dms|type:landmark_region:BA-09|name=Volkswagen Sarajevo d.o.o.}}
"title=Scania Group - Poland, Slupsk|url=http://www.scania.com/scania-group/scania-around-the-world/production-units/slupsk.aspx|publisher=Scania AB (publ)|work=Scania.com|year=2008|accessdate=4 October 2009}}</ref>",pomorskie,Poland,"Słupsk, Pomeranian, Voivodeship",Scania bus<br />body assembly, , , , ,747,"Scania Production Slupsk S.A. factory and assembly line, part of Scania (company)|Scania AB",{{Coord|54|28|42|N|17|0|46|E|type:landmark_region:PL-WP|name=Scania Production Slupsk S.A}}
"title=Scania Group - Sweden, Södertälje|url=http://www.scania.com/scania-group/scania-around-the-world/production-units/sodertalje.aspx|publisher=Scania AB (publ)|work=Scania.com|year=2008|accessdate=4 October 2009}}</ref>",Stockholm County,Sweden,"Södertälje Municipality, Södermanland, Stockholm County",Scania trucks<br />Scania bus chassis, ,"Components,<br />Engines", , ,"8,700","Scania (company)|Scania AB headquarters, R&D and main production plant","{{Coord|59|10|14|N|17|38|26|E|type:landmark_region:SE-AB|name=Scania AB Headquarters & production plant, Södertälje}}"
,Zakarpats'ka oblast,Ukraine,"Solomonovo, Zakarpattia Oblast",Audi A4<br />Audi A6<br />Škoda Fabia#5J|Škoda Fabia (5J)<br />Škoda Octavia#1Z|Škoda Octavia (1Z)<br />SEAT León<br />SEAT Altea<br />SEAT Toledo,Škoda Felicia<br />Škoda Fabia#6Y|Škoda Fabia (6Y)<br />Škoda Octavia#1U|Škoda Octavia (1U)<br />Volkswagen Jetta#1J|VW Bora, ,2005, , ,"Škoda Auto factory, also produces complete knock down|Semi Knock Down (SKD) Audis, VWs & SEATs under the Z code.",{{Coord|48|26|13|N|22|10|31.5|E|type:landmark_region:UA-21|name=Škoda Auto Solomonovo}}
"title=Scania Group - Russia, St. Petersburg|url=http://www.scania.com/scania-group/scania-around-the-world/production-units/st-petersburg.aspx|publisher=Scania AB (publ)|work=Scania.com|year=2008|accessdate=4 October 2009}}</ref>",Saint Petersburg,Russia,"St Petersburg, Northwestern Federal District",Scania bus<br />body assembly, , , , ,204,"OOO Scania Peter factory and assembly line, part of Scania (company)|Scania AB",
Steyr-Daimler Puch<br /><ref name=VWCV_90-00/>,Upper Austria,Austria,"Steyr, Upper Austria", ,Volkswagen Type 2|VW Type 2<br />Volkswagen Type 2 (T3)|VW Type 2 (T3)<br />Audi V8, ,"1983  (1934-5, 1864)<ref>http://www.magnasteyr.com/xchg/en/148-1867/complete_vehicle/ABOUT+MAGNA+STEYR/History/Chronicle</ref>",1995,0,Former joint venture factory,{{Coord|48|2|18|N|14|25|54|E|type:landmark_region:AT-4|name=Steyr-Daimler-Puch - (former joint venture Volkswagen factory)}}
,Aichi Prefecture,Japan,"Tahara, Aichi", ,Volkswagen Taro|VW Taro,,1989,1997, ,Toyota Group plant. The dates indicate the duration of this joint venture project.,
,SP,Brazil,"Taubaté, São Paulo",Volkswagen Gol|VW Gol<br />Volkswagen Parati|VW Parati<br />Volkswagen Gol|VW Voyage, , ,1975, ,"4,800",Part of Volkswagen do Brasil,{{Coord|23|3|14|S|45|38|9|W|type:landmark_region:BR-SP|name=Volkswagen Taubaté}}
"title=Scania Group - Argentina, Tucamán|url=http://www.scania.com/scania-group/scania-around-the-world/production-units/tucaman.aspx|publisher=Scania AB (publ)|work=Scania.com|year=2008|accessdate=4 October 2009}}</ref>",TM,Argentina,"San Miguel de Tucumán, Tucumán Province", , ,Rear axle gears, , ,649,"Scania Argentina S.A. factory, part of Scania (company)|Scania AB","{{Coord|26|52|47.5|S|65|7|38|W|type:landmark_region:AR-T|name=Scania Argentina S.A., Tucamán}}"
,EC,South Africa,"Uitenhage, Eastern, Cape",Volkswagen Polo|VW Polo<br />Volkswagen Golf|VW Golf<br />Volkswagen Jetta|VW Jetta<br />Volkswagen Volksbus|VW Volksbus<br />Volkswagen Constellation|VW Constellation,Volkswagen Golf Variant#1J|VW Golf Mk4 Variant,"list of Volkswagen Group engines|Engines,<br />Components",mid 1960's, ,"5,350",Part of Volkswagen of South Africa (Pty.) Ltd. Primarily supplies countries which use right-hand drive,{{Coord|33.786023|S|25.416441|E|format=dms|type:landmark_region:ZA-EC|name=Volkswagen Uitenhage}}
title=Der Volkswagen Konzern in China|url=http://www.volkswagenag.com/content/vwcorp/info_center/de/themes/2013/04/Volkswagen_Group_in_China.html|publisher=Volkswagen AG.|accessdate=15 June 2013}}</ref>Shanghai Automotive Industry Corporation|Shanghai<br />Shanghai Volkswagen Automotive|Volkswagen<br />(SVW)<br />,Xinjiang Weiwuerzizhiqu,China,"Urumqi, Toutunhe District, Xinjiang Province, ",VW New Santana<br />,VW New Santana, ,2013, ,???,"Part of Shanghai Volkswagen / Shanghai Volkswagen (Xinjiang), start CKD production in mid of 2013",{{Coord|43|49|52|N|87|26|28|E|type:landmark_region:CN-43|name=Shanghai Volkswagen (Xinjiang) (SVW) Urumqi}}
,Hradec Kralove Region,Czech Republic,"Vrchlabí, Hradec, Králové",Škoda Octavia#1U|Škoda Octavia (1U) Tour,Škoda Felicia<br />Škoda Fabia#6Y|Škoda Fabia (6Y)<br />Škoda Octavia#1U|Škoda Octavia (1U)<br />Škoda Superb#3U|Škoda Superb (3U), ,1999 ??, , ,"Škoda Auto|Škoda Auto a.s. factory. Carries out individual customer modifications, along with RS models.",{{Coord|50|36|39.5|N|15|37|28|E|type:landmark_region:CZ-KR|name=Škoda Auto Vrchlabí}}
"Westmoreland<br /><ref>{{cite news|title=Autos: American-Made Rabbit|url=http://www.time.com/time/magazine/article/0,9171,914145,00.html|publisher=Time Inc.|work=Time Magazine|date=3 May 1976|accessdate=5 October 2009}}</ref>",PA,USA,"New, Stanton, Pennsylvania", ,Volkswagen Golf|VW Rabbit (Golf)<br />Volkswagen Jetta|VW Jetta<br />Volkswagen Caddy|VW Rabbit pickup, ,1978,1988,0,"Originally built by Chrysler in the 1960s, but was not completed until Volkswagen Group of America|VWoA began operations. Sony took over the site in 1990. In 1994, its VIN ID code was reassigned to the Portuguese Palmela factory.",{{Coord|40.186636|N|79.577365|W|format=dms|type:landmark_region:US-PA|name=former Volkswagen Westmoreland factory}}
,NDS,Germany,"Wolfsburg, Lower, Saxony",Volkswagen Golf Mk7|VW Golf Mk7<br />Volkswagen Golf Plus|VW Golf Plus<br />Volkswagen Touran|VW Touran<br />Volkswagen Tiguan|VW Tiguan,Volkswagen Beetle|VW Beetle<br />Volkswagen Iltis|VW 181 Iltis<br />Audi 50<br />Audi 80|Audi 80 (B1)<br />Volkswagen Karmann Ghia|VW Karmann Ghia<br />Volkswagen Lupo|VW Lupo<br />Volkswagen Type 2 (T3)|VW Type 2 (T3)<br />Volkswagen Type 4|VW Type 4<br />Volkswagen K70|VW K70<br />{{nowrap|Volkswagen Golf Variant#1J|VW Golf Mk4 Variant}}<br />Volkswagen Jetta|VW Vento<br />Volkswagen Golf Mk5|VW Golf Mk5<br />Volkswagen Golf Mk6|VW Golf Mk6<br />SEAT Arosa,"Components,<br />Press shop,<br />car seat|Seating<br />technology",1938, ,"48,000<br /><br /><small>('''''VW AG''''':<br />44,200,<br />'''''Auto<br />5000<br />GmbH''''':<br />3,901,<br />'''''Sitech<br />Sitztechnik<br />GmbH''''':<br />1,702)</small>","Oldest factory; Bombed during World War II|WW2, rebuilt shortly thereafter under leadership from British Army Major Ivan Hirst. Headquarters of Volkswagen Group|Volkswagen AG. Informally known as ''Golfsburg'' after it was officially renamed for a week in November 2003 to celebrate the Volkswagen Golf Mk5|5th generation Golf. 13&nbsp;km<sup>2</sup>. Also includes Auto 5000 GmbH and Sitech Sitztechnik GmbH.","{{Coord|52|26|11|N|10|46|9|E|type:landmark_region:DE-NI|name=Volkswagen-Werk Wolfsburg, Volkswagen AG headquarters}}"
,BW,Germany,"Zuffenhausen, Stuttgart, Baden-Württemberg", ,Audi RS2 Avant, ,1994,1995, ,Porsche factory - was used to build the Audi RS2 Avant under a joint venture agreement between Porsche and Audi. The dates indicate the duration of this project.,"{{Coord|48|50|9|N|9|9|9|E|type:landmark_region:DE-BW|name=Porsche AG, Zuffenhausen, Stuttgart - (former joint-venture Volkswagen factory, still operational Porsche site)}}"
"title=Scania Group - The Nederlands, Zwolle|url=http://www.scania.com/scania-group/scania-around-the-world/production-units/zwolle.aspx|publisher=Scania AB (publ)|work=Scania.com|year=2008|accessdate=4 October 2009}}</ref>",Overste,Netherlands,"Zwolle, Overijssel",Scania truck assembly, , ,1964, ,"1,437","Scania Nederland B.V. factory, part of Scania (company)|Scania AB","{{Coord|52|30|46|N|6|3|48|E|type:landmark_region:NL-OV|name=Scania Nederland B.V., Zwolle}}"
