name,address,city,state,phone,lat,lon,contact_name,p1,p2,p3,backup
Wal-Mart Distribution Center #7019,1005 Sara G. Lott Blvd.,Brundidge,AL,(334) 735-6000,31.7201615,-85.81605669999999,Floyd King,HOUSTON,NEW ORLEANS,NORFOLK,
Wal-Mart Distribution Center #6006,2200 7th Ave SW,Cullman,AL,(256) 739-0763,34.1388449,-86.8447465,Clifford Monroe,HOUSTON,NEW ORLEANS,NORFOLK,
Wal-Mart Distribution Center #6095,2701 Andrews Rd,Opelika,AL,(334) 705-2800,32.7003738,-85.3240081,Murray Bernstein,HOUSTON,NEW ORLEANS,NORFOLK,
Wal-Mart Distribution Center #6094,5801 SW Regional Airport Blvd,Bentonville,AR,(479) 254-3200,36.3216495,-94.25649130000001,Harry Simon,HOUSTON,NEW ORLEANS,NORFOLK,
Wal-Mart Distribution Center #6008,2100 SE 5th St,Bentonville,AR,(479) 254-2300,36.3655582,-94.1880252,Beth Simon,HOUSTON,NEW ORLEANS,NORFOLK,
Wal-Mart Distribution Center #6045,1201 Moberly Ln,Bentonville,AR,(479) 273-7588,36.3590957,-94.1834714,Mitchell Hansen,HOUSTON,NEW ORLEANS,NORFOLK,
Wal-Mart Distribution Center #6051,1110 SE 10th St,Bentonville,AR,(479) 277-2851,36.3594,-94.19442339999999,Kevin Zahl,HOUSTON,NEW ORLEANS,NORFOLK,
Wal-Mart Distribution Center #6082,3300 Sterlin Hurley Ind Hwy,Clarksville,AR,(479) 754-4500,35.4293984,-93.5323291,Floyd King,HOUSTON,NEW ORLEANS,NORFOLK,
Wal-Mart Distribution Center #6007,8100 Zero St,Fort Smith,AR,(479) 452-4143,35.3215071,-94.34502040000001,Clifford Monroe,HOUSTON,NEW ORLEANS,NORFOLK,
Wal-Mart Distribution Center #6001,2252 N 8th St,Rogers,AR,(479) 621-9188,36.35267899999999,-94.12863399999999,Murray Bernstein,HOUSTON,NEW ORLEANS,NORFOLK,
Wal-Mart Distribution Centers - #6003,3301 E Park Ave,Searcy,AR,(501) 268-4271,35.2413748,-91.69851039999999,Harry Simon,HOUSTON,NEW ORLEANS,NORFOLK,
Wal-Mart Distribution Centers - #6018,405 E Booth Rd,Searcy,AR,(501) 279-2024,35.2237113,-91.7301612,Beth Simon,HOUSTON,NEW ORLEANS,NORFOLK,
Wal-Mart Distribution Center #6299,23701 W Southern Ave,Buckeye,AZ,(623) 386-8101,33.3870634,-112.5606908,Mitchell Hansen,LOS ANGELES,LONG BEACH,HOUSTON,HOUSTON
Wal-Mart Distribution Center #6031,23701 W Southern Ave,Buckeye,AZ,(623) 386-3319,33.3870634,-112.5606908,Kevin Zahl,LOS ANGELES,LONG BEACH,HOUSTON,HOUSTON
Wal-Mart Distribution Center #7013,868 W Peters Rd,Casa Grande,AZ,(520) 836-4460,32.8668386,-111.7693506,Floyd King,LOS ANGELES,LONG BEACH,HOUSTON,HOUSTON
Wal-Mart Distribution Center #7033,21101 Johnson Rd,Apple Valley,CA,(760) 961-6300,34.597344,-117.197589,Clifford Monroe,LOS ANGELES,LONG BEACH,OAKLAND,NEW ORLEANS
Wal-Mart Distribution Center #6493,10268 Almond Ave,Fontana,CA,(909) 574-7478,34.067366,-117.494536,Murray Bernstein,LOS ANGELES,LONG BEACH,OAKLAND,NEW ORLEANS
Wal-Mart Distribution Center #7047,13550 Valley Blvd,Fontana,CA,(909) 349-3600,34.072728,-117.512976,Harry Simon,LOS ANGELES,LONG BEACH,OAKLAND,NEW ORLEANS
Wal-Mart Distribution Center #6032,13231 11th Ave,Hanford,CA,-,36.2812237,-119.6534806,Beth Simon,LOS ANGELES,LONG BEACH,OAKLAND,NORFOLK
Wal-Mart DC #6909,4250 Hamner Ave,Eastvale,CA,-,34.0105239,-117.554392,Mitchell Hansen,LOS ANGELES,LONG BEACH,OAKLAND,NEW ORLEANS
Sam's Distribution Center #6060,4155 Wineville Ave,Mira Loma,CA,(951) 681-7256,34.012473,-117.54417,Kevin Zahl,LOS ANGELES,LONG BEACH,OAKLAND,NEW ORLEANS
Wal-Mart Distribution Center #6021,1300 S F St,Porterville,CA,(559) 783-1109,36.0450673,-119.0215035,Floyd King,LOS ANGELES,LONG BEACH,OAKLAND,NORFOLK
Wal-Mart Distribution Center #6026,10815 State Hwy 99w,Red Bluff,CA,(530) 529-0916,40.1048498,-122.1868662,Clifford Monroe,OAKLAND,LOS ANGELES,TACOMA,NORFOLK
Wal-Mart Distribution Center #7084,1001 Columbia Ave,Riverside,CA,(951) 328-4500,34.0027974,-117.3324621,Murray Bernstein,LOS ANGELES,LONG BEACH,OAKLAND,NEW ORLEANS
Wal-Mart Distribution Center #6052,19688 Van Ness Ave,Torrance,CA,(310) 972-5300,33.8508528,-118.3170464,Harry Simon,LOS ANGELES,LONG BEACH,OAKLAND,NEW ORLEANS
Sam's Distribution Center #8230,1600 Tide Ct,Woodland,CA,(530) 661-4707,38.6800758,-121.7459068,Beth Simon,OAKLAND,LONG BEACH,TACOMA,NORFOLK
Wal-Mart Distribution Center #6019,7500 E Cross Roads Blvd,Loveland,CO,(970) 663-7870,40.4327694,-104.9693769,Mitchell Hansen,OAKLAND,LONG BEACH,HOUSTON,HOUSTON
Wal-Mart Distribution Center #7034,4860 Wheatleys Pond Rd,Smyrna,DE,(302) 659-4800,39.285197,-75.62118199999999,Kevin Zahl,BALTIMORE,NEW YORK CITY,NORFOLK,
Wal-Mart Distribution Center #7035,15900 NW US Hwy 441,Alachua,FL,(386) 462-2321,29.800018,-82.50791699999999,Floyd King,NEW ORLEANS,NORFOLK,SAVANNAH,
Wal-Mart Distribution Center #7023,6785 SW Enterprize Blvd,Arcadia,FL,(863) 491-6500,27.040115,-81.954465,Clifford Monroe,NEW ORLEANS,NORFOLK,SAVANNAH,
Wal-Mart Distribution Center #6020,5100 Kettering Rd,Brooksville,FL,(352) 799-6974,28.503167,-82.216064,Murray Bernstein,NEW ORLEANS,NORFOLK,SAVANNAH,
Wal-Mart Distribution Center #7038,4001 S Jenkins Rd,Fort Pierce,FL,(772) 467-4500,27.3943817,-80.3878555,Harry Simon,NEW ORLEANS,NORFOLK,SAVANNAH,
Wal-Mart Distribution Center #6053,8015 Westside Industrial Dr,Jacksonville,FL,(904) 786-2700,30.374787,-81.78322399999999,Beth Simon,NEW ORLEANS,NORFOLK,SAVANNAH,
Wal-Mart Distribution Center #8229,3010 Saddle Creek Rd,Lakeland,FL,(863) 667-1136,28.0770241,-81.89751350000002,Mitchell Hansen,NEW ORLEANS,NORFOLK,SAVANNAH,
Wal-Mart Distribution Center #6099,2686 Commerce Rd,Macclenny,FL,(904) 653-4000,30.2933351,-82.0865039,Kevin Zahl,NEW ORLEANS,NORFOLK,SAVANNAH,
Wal-Mart Distribution Center #6071,5600 FL-544,Winter Haven,FL,(863) 298-1000,28.0726014,-81.6811635,Floyd King,NEW ORLEANS,NORFOLK,SAVANNAH,
Wal-Mart Distribution Center #7005,Hwy 27 N,Carrollton,GA,(678) 305-2400,33.6592688,-85.14675679999999,Clifford Monroe,HOUSTON,NORFOLK,SAVANNAH,
Wal-Mart Distribution Center #6010,490 Bowens Mill Rd,Douglas,GA,(912) 384-0390,31.5222012,-82.8733567,Murray Bernstein,HOUSTON,NORFOLK,SAVANNAH,
Wal-Mart Distribution Center #6054,385 Callaway Church Rd,LaGrange,GA,(706) 242-4200,33.033898,-84.958911,Harry Simon,HOUSTON,NORFOLK,SAVANNAH,
Wal-Mart Distribution Center #6033,180-200 Interstate S Dr,McDonough,GA,(770) 898-5172,33.4091,-84.172606,Beth Simon,HOUSTON,NORFOLK,SAVANNAH,
Wal-Mart Distribution Center #6055,655 Unisia Dr,Monroe,GA,(770) 266-4800,33.8061835,-83.6774111,Mitchell Hansen,HOUSTON,NORFOLK,SAVANNAH,
Wal-Mart Distribution Center #6061,299 Aj Riggs Rd,Statesboro,GA,(912) 871-4000,32.3904012,-81.83855439999999,Kevin Zahl,HOUSTON,NORFOLK,SAVANNAH,
Wal-Mart Distribution Center #6013,Walmart Way,Tifton,GA,(229) 382-5019,31.4217587,-83.481145,Floyd King,HOUSTON,NORFOLK,SAVANNAH,
Wal-Mart Distribution Center #6499,140 Fleet Dr,Villa Rica,GA,(770) 459-7941,33.745812,-84.943812,Clifford Monroe,HOUSTON,NORFOLK,SAVANNAH,
Wal-Mart Distribution Center #6059,3801 US-50,Olney,IL,(618) 393-5900,38.7120508,-88.1312847,Murray Bernstein,TOLEDO,HOUSTON,LOS ANGELES,
Wal-Mart Distribution Center #6092,3100 IL-89,Spring Valley,IL,(815) 664-1700,41.3532559,-89.21859239999999,Harry Simon,TOLEDO,HOUSTON,LOS ANGELES,
Wal-Mart Distribution Center #7024,23769 Mathew Rd,Sterling,IL,815-632-4900,41.7769403,-89.7914443,Beth Simon,TOLEDO,HOUSTON,LOS ANGELES,
Wal-Mart Distribution Center (Not Known),Center Point Dr,Elwood,IL,815-424-3100,41.4045336,-88.1311915,Mitchell Hansen,TOLEDO,HOUSTON,LOS ANGELES,
SAM'S Distribution Center 6598,1325 Central Ave,University Park,IL,708-534-5409,41.43157360000001,-87.7477325,Kevin Zahl,TOLEDO,HOUSTON,LOS ANGELES,
Wal-Mart Distribution Center #6074,1729 State Road 8,Auburn,IN,(260) 423-4200,41.3679763,-85.1128371,Floyd King,TOLEDO,HOUSTON,NEW YORK CITY,
Wal-Mart Distribution Center #6028,801 Corda Blvd,Crawfordsville,IN,(765) 364-1192,40.0468688,-86.8674151,Clifford Monroe,TOLEDO,HOUSTON,NEW YORK CITY,
Wal-Mart Distribution Center #7055,100 Fisher Pkwy,Gas City,IN,(765) 677-7000,40.47270899999999,-85.582548,Murray Bernstein,TOLEDO,HOUSTON,NEW YORK CITY,
Wal-Mart Distribution Center #6022,333 S 10th St,Greencastle,IN,(765) 653-1234,39.6374359,-86.8317841,Harry Simon,TOLEDO,HOUSTON,NEW YORK CITY,
Sam's Club Distribution Center,488 W Muskegon Dr,Greenfield,IN,(317) 467- 0495,39.811143,-85.776808,Beth Simon,TOLEDO,HOUSTON,NEW YORK CITY,
Wal-Mart Distribution Center #6017,2100 E Tipton St,Seymour,IN,(812) 523-5600,38.9554467,-85.8490439,Mitchell Hansen,TOLEDO,HOUSTON,NEW YORK CITY,
Wal-Mart Distribution Center # 6908,All Points Court,Plainfield,IN,-,39.7450587,-86.349268,Kevin Zahl,TOLEDO,HOUSTON,NEW YORK CITY,
Wal-Mart Distribution Center #6009,1501 E Maple Leaf Dr,Mount Pleasant,IA,(319) 385-5600,40.9763664,-91.5282162,Floyd King,TOLEDO,HOUSTON,NEW YORK CITY,
Wal-Mart Distribution Center #6035,3300 Hwy K 68,Ottawa,KS,(785) 242-4555,38.6191,-95.2163999,Clifford Monroe,TOLEDO,HOUSTON,LOS ANGELES,
Wal-Mart Distribution Center #6066,690 Crenshaw Blvd,Hopkinsville,KY,(270) 707-5000,36.7357675,-87.4777807,Murray Bernstein,HOUSTON,NORFOLK,BALTIMORE,
Wal-Mart Distribution Center #6097,3701 Russell Dyche Memorial Hwy,London,KY,(606) 877-4000,37.1476,-84.1457776,Harry Simon,HOUSTON,NORFOLK,BALTIMORE,
Wal-Mart Distribution Center #6048,3160 LA-743,Opelousas,LA,(337) 594-1500,30.583159,-92.0310145,Beth Simon,HOUSTON,NEW ORLEANS,NORFOLK,
Wal-Mart Distribution Center #6057,45346 Parkway Blvd,Robert,LA,(985) 902-3000,30.5153391,-90.3242764,Mitchell Hansen,HOUSTON,NEW ORLEANS,NORFOLK,
Wal-Mart Distribution Center #7014,31 Alfred A Plourde Pkwy,Lewiston,ME,(207) 344-2700,44.0635666,-70.19437119999999,Kevin Zahl,NEW YORK CITY,BALTIMORE,NORFOLK,
Wal-Mart Distribution Center #6495,14557 Industry Dr,Hagerstown,MD,(301) 791-9190,39.7185119,-77.720146,Floyd King,BALTIMORE,NEW YORK CITY,NORFOLK,
Wal-Mart Distribution Center #6046,11121 Elliott Pl,Williamsport,MD,(301) 223-5800,39.620583,-77.810056,Clifford Monroe,BALTIMORE,NEW YORK CITY,NORFOLK,
Sams Club Distribution Center #6596,18650 Dix Toledo Rd,Riverview,MI,(734) 284-9175,42.1758415,-83.2387077,Murray Bernstein,TOLEDO,NEW ORLEANS,NEW YORK CITY,
Wal-Mart Distribution Center #6043,510 Jonesville Rd,Coldwater,MI,(517) 279-3700,41.9855635,-84.9763261,Harry Simon,TOLEDO,NEW ORLEANS,NEW YORK CITY,
Wal-Mart Distribution Center #6697,6301 W Old Shakopee Rd,Bloomington,MN,(952) 885-0001,44.8067905,-93.36431619999999,Beth Simon,TOLEDO,NEW ORLEANS,NEW YORK CITY,
Wal-Mart Distribution Center #6011,2200 Manufacturers Blvd NE,Brookhaven,MS,(601) 835-3600,31.6127006,-90.4204285,Mitchell Hansen,HOUSTON,NEW ORLEANS,NORFOLK,
Wal-Mart Distribution Center #4792.,185 J M Tatum Industrial Dr,Hattiesburg,MS,-,31.2655019,-89.2678535,Kevin Zahl,HOUSTON,NEW ORLEANS,NORFOLK,
Wal-Mart Distribution Center #6072,973 MS-30,New Albany,MS,(662) 538-4000,34.4892297,-89.0663915,Floyd King,HOUSTON,NEW ORLEANS,NORFOLK,
Wal-Mart Distribution Center #6065,5100 S Brookhart Dr,Harrisonville,MO,(816) 887-5400,38.6122169,-94.35865299999999,Clifford Monroe,HOUSTON,NEW ORLEANS,LOS ANGELES,
Wal-Mart Distribution Center #6496,5801 Gardner Ave,Kansas City,MO,(816) 483-5670,39.1257639,-94.51192499999999,Murray Bernstein,HOUSTON,NEW ORLEANS,LOS ANGELES,
Wal-Mart Distribution Center #6077,Hwy 24,Moberly,MO,(660) 269-4300,39.4424072,-92.4297978,Harry Simon,HOUSTON,NEW ORLEANS,LOS ANGELES,
Wal-Mart Distribution Center #6069,Matlock Dr,Saint James,MO,(573) 265-4800,38.0101388,-91.6270914,Beth Simon,HOUSTON,NEW ORLEANS,LOS ANGELES,
Wal-Mart Distribution Center #7018,3001 E State Farm Rd,North Platte,NE,(308) 535-3200,41.0917089,-100.7308497,Mitchell Hansen,TOLEDO,TACOMA,LOS ANGELES,
Wal-Mart Distribution Center #6084,670 Los Morros Rd,Los Lunas,NM,(505) 866-8600,34.826469,-106.7686493,Kevin Zahl,HOUSTON,LONG BEACH,OAKLAND,
Wal-Mart Distribution Center #8206,1911 Continental Blvd,Charlotte,NC,(704) 588-5240,35.1285049,-80.93186399999999,Floyd King,NORFOLK,NEW YORK CITY,HOUSTON,
Wal-Mart Distribution Center #6091,680 Vanco Mill Rd,Henderson,NC,252-430-5600,36.2910293,-78.3849415,Clifford Monroe,NORFOLK,NEW YORK CITY,HOUSTON,
Wal-Mart Distribution Center #6040,Production Dr,Hope Mills,NC,(910) 426-5000,34.9464938,-78.8870401,Murray Bernstein,NORFOLK,NEW YORK CITY,HOUSTON,
Wal-Mart Distribution Center #6070,220 Walmart Dr,Shelby,NC,(704) 487-2531,35.3115683,-81.57962839999999,Harry Simon,NORFOLK,NEW YORK CITY,HOUSTON,
Wal-Mart Distribution Center #7048,2155 N McCarran Blvd,Sparks,NV,(775) 356-5000,39.5500846,-119.7338711,Beth Simon,OAKLAND,LONG BEACH,LOS ANGELES,NEW ORLEANS
Wal-Mart Distribution Center #6597,40 Londonderry Turnpike,Hooksett,NH,(603) 623-6330,43.0161044,-71.40049549999999,Mitchell Hansen,NEW YORK CITY,BALTIMORE,NORFOLK,
Wal-Mart Distribution Center,42 Freetown Rd,Raymond,NH,(603) 895-0066,43.0266817,-71.1570117,Kevin Zahl,NEW YORK CITY,BALTIMORE,NORFOLK,
Wal-Mart Distribution Center #7057,101 S King St,Gloucester City,NJ,-,39.89859209999999,-75.12657999999999,Floyd King,NEW YORK CITY,BALTIMORE,NORFOLK,
Wal-Mart Distribution Center #1234,133 Linden Ave E,Jersey City,NJ,-,40.6892884,-74.086458,Clifford Monroe,NEW YORK CITY,BALTIMORE,NORFOLK,
Wal-Mart Distribution Center #6096,300 Enterprise Rd,Johnstown,NY,(518) 736-3000,42.989233,-74.40508799999999,Murray Bernstein,NEW YORK CITY,BALTIMORE,NORFOLK,
Wal-Mart Distribution Center #6038,8827 Old River Rd,Marcy,NY,(315) 768-0150,43.17227099999999,-75.311962,Harry Simon,NEW YORK CITY,BALTIMORE,NORFOLK,
Wal-Mart Distribution Center #6041,High St,Sharon Springs,NY,(518) 284-3500,42.7883834,-74.6081526,Beth Simon,NEW YORK CITY,BALTIMORE,NORFOLK,
Wal-Mart Distribution Center #6024,3880 Southwest Blvd,Grove City,OH,(614) 871-2333,39.896871,-83.1019589,Mitchell Hansen,TOLEDO,NEW YORK CITY,BALTIMORE,
Wal-Mart Distribution Center #6492,2150 International Pkwy,North Canton,OH,(330) 899-1003,40.911957,-81.45716670000002,Kevin Zahl,TOLEDO,NEW YORK CITY,BALTIMORE,
Wal-Mart Distribution Center #7012,1400 Old Chillicothe Rd SE,Washington Court House,OH,(740) 636-5400,39.519751,-83.3991061,Floyd King,TOLEDO,NEW YORK CITY,BALTIMORE,
Wal-Mart Distribution Center #7017,843 OH-43,Wintersville,OH,(740) 765-5700,40.4149022,-80.7395135,Clifford Monroe,TOLEDO,NEW YORK CITY,BALTIMORE,
Wal-Mart Distribution Center #7015,397319 W 3000 Rd,Ochelata,OK,(918) 535-3100,36.575724,-95.93230469999999,Murray Bernstein,HOUSTON,NEW ORLEANS,NORFOLK,
Wal-Mart Distribution Center #6042,S Indian Meridian Rd,Pauls Valley,OK,(405) 207-5000,34.7130578,-97.24768309999999,Harry Simon,HOUSTON,NEW ORLEANS,NORFOLK,
Wal-Mart Distribution Center #6037,2650 S Hwy 395,Hermiston,OR,(541) 564-4600,45.8097637,-119.2556938,Beth Simon,TACOMA,SEATTLE,OAKLAND,NORFOLK
Wal-Mart Distribution Center #6047,181 Walmart Rd,Bedford,PA,(814) 624-5200,40.0928887,-78.52246339999999,Mitchell Hansen,NEW YORK CITY,BALTIMORE,NORFOLK,
Wal-Mart Distribution Center #7030,390 Highridge Park Rd,Pottsville,PA,(570) 544-1398,40.732224,-76.3206874,Kevin Zahl,NEW YORK CITY,BALTIMORE,NORFOLK,
Wal-Mart Distribution Center #8231,26 Stauffer Industrial Park,Taylor,PA,(570) 562-2230,41.4061048,-75.7062213,Floyd King,NEW YORK CITY,BALTIMORE,NORFOLK,
Wal-Mart Distribution Center #6080,Veterans Dr,Pocono Summit,PA,(570) 894-6000,41.16588730000001,-75.4050896,Clifford Monroe,NEW YORK CITY,BALTIMORE,NORFOLK,
Wal-Mart Distribution Center #6027,300 Wal-Mart Dr. State Rte 970,Woodland,PA,(814) 857-5442,41.0262397,-78.3159411,Murray Bernstein,NEW YORK CITY,BALTIMORE,NORFOLK,
Wal-Mart Distribution Center #4894,1080 Charleston Regional Pkwy,Charleston,SC,-,32.9102629,-79.90599809999999,Harry Simon,NORFOLK,SAVANNAH,HOUSTON,
Wal-Mart Distribution Center #6014 & #6015,1050 Vern Cora Rd,Laurens,SC,(864) 682-1500,34.5483856,-81.999754,Beth Simon,NORFOLK,SAVANNAH,HOUSTON,
Wal-Mart Distribution Center #6073,160 State Rd S-13-682,Pageland,SC,(843) 672-3000,34.7996399,-80.4130364,Mitchell Hansen,NORFOLK,SAVANNAH,HOUSTON,
Wal-Mart Distribution Center #6039,1655 Bobwhite Trl,Bulls Gap,TN,(423) 235-2300,36.2570407,-83.0859967,Kevin Zahl,NORFOLK,SAVANNAH,HOUSTON,
Wal-Mart Distribution Center #6039,1655 Potter Town Rd,Midway,TN,(423) 235-7719,36.1978319,-83.02365759999999,Floyd King,NORFOLK,SAVANNAH,HOUSTON,
Wal-Mart Distribution Center #6062,285 Frank Martin Rd,Shelbyville,TN,(931) 680-3330,35.5655214,-86.4611048,Clifford Monroe,NORFOLK,SAVANNAH,HOUSTON,
Wal-Mart Distribution Center #7042,Greenwood St,Baytown,TX,(281) 573-2009,29.735627,-94.939494,Murray Bernstein,HOUSTON,NEW ORLEANS,NORFOLK,
Wal-Mart Distribution Center #6064,3470 Windmill Rd,Cleburne,TX,(817) 202-3000,32.4056592,-97.42740339999999,Harry Simon,HOUSTON,NEW ORLEANS,LOS ANGELES,
Wal-Mart Distribution Center #6067,4130 Port Blvd,Dallas,TX,(972) 225-7799,32.6490983,-96.75672290000001,Beth Simon,HOUSTON,NEW ORLEANS,NORFOLK,
Wal-Mart Distribution Center #6698,451 FM686,Dayton,TX,(936) 258-4008,30.09841269999999,-94.9270022,Mitchell Hansen,HOUSTON,NEW ORLEANS,NORFOLK,
Wal-Mart Distribution Center #8235,830 E Centre Park Blvd,DeSoto,TX,(972) 228-8505,32.6218167,-96.8369192,Kevin Zahl,HOUSTON,NEW ORLEANS,NORFOLK,
Wal-Mart Distribution Center #6050,40781 Black Diamond Cir,Laredo,TX,(956) 417-2955,27.7194385,-99.7163453,Floyd King,HOUSTON,NEW ORLEANS,LOS ANGELES,
Wal-Mart Distribution Center #6016,IH 35 N,New Braunfels,TX,(830) 620-3300,29.7487161,-98.05795909999999,Clifford Monroe,HOUSTON,NEW ORLEANS,LOS ANGELES,
Wal-Mart Distribution Center #7010,20131 Gene Campbell Rd,New Caney,TX,(281) 429-5400,30.1730991,-95.28529689999999,Murray Bernstein,HOUSTON,NEW ORLEANS,NORFOLK,
Wal-Mart Distribution Center #6036,RR 5,Palestine,TX,(903) 538-2254,31.7588209,-95.5407299,Harry Simon,HOUSTON,NEW ORLEANS,NORFOLK,
Wal-Mart Distribution Center #6012,3100 I-27,Plainview,TX,(806) 293-9601,34.2106909,-101.7308204,Beth Simon,HOUSTON,NEW ORLEANS,LOS ANGELES,
Wal-Mart Distribution Center #6068,2120 N Stemmons St,Sanger,TX,(940) 458-6100,33.3993163,-97.1720883,Mitchell Hansen,HOUSTON,NEW ORLEANS,LOS ANGELES,
Wal-Mart Distribution Center #7036,Brast Rd,Sealy,TX,(979) 885-4300,29.7400598,-96.1810466,Kevin Zahl,HOUSTON,NEW ORLEANS,NORFOLK,
Wal-Mart Distribution Center #6083,9605 NW H K Dodgen Loop,Temple,TX,(254) 770-3600,31.144383,-97.364025,Floyd King,HOUSTON,NEW ORLEANS,LOS ANGELES,
Wal-Mart Distribution Center #6056,591 Apache Trail,Terrell,TX,(972) 551-5400,32.7305149,-96.33432499999999,Clifford Monroe,HOUSTON,NEW ORLEANS,NORFOLK,
Wal-Mart Distribution Center #6090,5400 UT-83,Corinne,UT,(435) 744-4000,41.5609514,-112.14323,Murray Bernstein,OAKLAND,TACOMA,LONG BEACH,NORFOLK
Wal-Mart Distribution Center #7026,929 UT-138,Grantsville,UT,(435) 884-5100,40.62163,-112.5103061,Harry Simon,OAKLAND,TACOMA,LONG BEACH,NORFOLK
Wal-Mart Distribution Center #6029,152 Old Hwy 91,Hurricane,UT,(435) 634-1090,37.1626468,-113.4346338,Beth Simon,OAKLAND,TACOMA,LONG BEACH,NORFOLK
Wal-Mart Distribution Center #7016,10695 Freedom Trail,Gordonsville,VA,(540) 832-1140,37.9827843,-78.2017884,Mitchell Hansen,NORFOLK,BALTIMORE,NEW YORK CITY,
Wal-Mart Distribution Center #7045,6000 Walton Way,Mount Crawford,VA,(540) 801-3100,38.3570713,-78.9408615,Kevin Zahl,NORFOLK,BALTIMORE,NEW YORK CITY,
Wal-Mart Distribution Center #6023,Cox Rd,Sutherland,VA,(804) 862-9104,37.1944867,-77.5943722,Floyd King,NORFOLK,BALTIMORE,NEW YORK CITY,
Wal-Mart Distribution Center #6088,9305 Pocahontas Trail,Williamsburg,VA,(757) 820-4600,37.2079964,-76.598866,Clifford Monroe,NORFOLK,BALTIMORE,NEW YORK CITY,
Wal-Mart Distribution Center #7021,546 Woodall Rd,Grandview,WA,(509) 882-8100,46.2791027,-119.9180662,Murray Bernstein,TACOMA,SEATTLE,OAKLAND,NORFOLK
Wal-Mart Distribution Center #6289,2810 Marshall Ave,Tacoma,WA,(253) 272-2919,47.2536936,-122.3906736,Harry Simon,TACOMA,SEATTLE,OAKLAND,NORFOLK
Wal-Mart Distribution Center #7039,115 Distribution Way,Beaver Dam,WI,(920) 689-2000,43.5102464,-88.794724,Beth Simon,TOLEDO,TACOMA,NEW YORK CITY,
Wal-Mart Distribution Center #6025,6100 3M Dr,Menomonie,WI,(715) 232-9240,44.9010119,-91.85786619999999,Mitchell Hansen,TOLEDO,TACOMA,NEW YORK CITY,
Wal-Mart Distribution Center #6085,525 Industrial Ave,Tomah,WI,(608) 374-8500,43.99061,-90.4703969,Kevin Zahl,TOLEDO,TACOMA,NEW YORK CITY,
Wal-Mart Distribution Center,426 Logistics Dr,Cheyenne,WY,(307) 633-5000,41.1200959,-104.899139,Floyd King,TACOMA,OAKLAND,TOLEDO,NORFOLK